 DBCSR| CPU Multiplication driver                                           XSMM (U)
 DBCSR| Multrec recursion limit                                              512 (U)
 DBCSR| Multiplication stack size                                           1000 (D)
 DBCSR| Maximum elements for images                                    UNLIMITED (U)
 DBCSR| Multiplicative factor virtual images                                   1 (U)
 DBCSR| Use multiplication densification                                       T (D)
 DBCSR| Multiplication size stacks                                             3 (U)
 DBCSR| Use memory pool for CPU allocation                                     F (U)
 DBCSR| Number of 3D layers                                               SINGLE (U)
 DBCSR| Use MPI memory allocation                                              F (U)
 DBCSR| Use RMA algorithm                                                      F (U)
 DBCSR| Use Communication thread                                               T (U)
 DBCSR| Communication thread load                                             87 (D)
 DBCSR| MPI: My process id                                                     0
 DBCSR| MPI: Number of processes                                              16
 DBCSR| OMP: Current number of threads                                         1
 DBCSR| OMP: Max number of threads                                             1
 DBCSR| Split modifier for TAS multiplication algorithm                  1.0E+00 (U)


  **** **** ******  **  PROGRAM STARTED AT               2024-12-05 10:02:22.135
 ***** ** ***  *** **   PROGRAM STARTED ON         c6420node123.psmn.ens-lyon.fr
 **    ****   ******    PROGRAM STARTED BY                                 mwolf
 ***** **    ** ** **   PROGRAM PROCESS ID                                377000
  **** **  *******  **  PROGRAM STARTED IN                   /tmp/tmp.tSsTJlidfC

 CP2K| version string:                                       CP2K version 2023.2
 CP2K| source code revision number:                                  git:65cca6c
 CP2K| cp2kflags: omp libint fftw3 libxc elpa parallel mpi_f08 scalapack cosma x
 CP2K|            smm plumed2 spglib sirius libvori libbqb libvdwxc
 CP2K| is freely available from                            https://www.cp2k.org/
 CP2K| Program compiled at                       Tue 12 Dec 2023 10:54:06 AM CET
 CP2K| Program compiled on                          cl6242comp2.psmn.ens-lyon.fr
 CP2K| Program compiled for                                                local
 CP2K| Data directory path                /Xnfs/chimie/debian11/cp2k/2023.2/data
 CP2K| Input file name                                              isolated.inp

 GLOBAL| Force Environment number                                              1
 GLOBAL| Basis set file name            /Xnfs/chimie/debian11/cp2k/2023.2/data/B
 GLOBAL| Potential file name            /Xnfs/chimie/debian11/cp2k/2023.2/data/G
 GLOBAL| MM Potential file name                                     MM_POTENTIAL
 GLOBAL| Coordinate file name                                            mol.xyz
 GLOBAL| Method name                                                        CP2K
 GLOBAL| Project name                                     Isolated_etOh_isolated
 GLOBAL| Run type                                                        GEO_OPT
 GLOBAL| FFT library                                                       FFTW3
 GLOBAL| Diagonalization library                                            ELPA
 GLOBAL| DGEMM library                                                      BLAS
 GLOBAL| Minimum number of eigenvectors for ELPA usage                        16
 GLOBAL| Orthonormality check for eigenvectors                          DISABLED
 GLOBAL| Matrix multiplication library                                     COSMA
 GLOBAL| All-to-all communication in single precision                          F
 GLOBAL| FFTs using library dependent lengths                                  F
 GLOBAL| Grid backend                                                       AUTO
 GLOBAL| Global print level                                                  LOW
 GLOBAL| MPI I/O enabled                                                       T
 GLOBAL| Total number of message passing processes                            16
 GLOBAL| Number of threads for this process                                    1
 GLOBAL| This output is from process                                           0
 GLOBAL| Stack size for threads created by OpenMP (OMP_STACKSIZE)        default
 GLOBAL| CPU model name                Intel(R) Xeon(R) Gold 6226R CPU @ 2.90GHz
 GLOBAL| CPUID                                                              1003
 GLOBAL| Compiled for CPUID                                                    0

 *** HINT in environment.F:904 :: The compiler target flags (generic) used ***
 *** to build this binary cannot exploit all extensions of this CPU model  ***
 *** (x86_avx512). Consider compiler target flags as part of FCFLAGS and   ***
 *** CFLAGS (ARCH file).                                                   ***


 MEMORY| system memory details [Kb]
 MEMORY|                        rank 0           min           max       average
 MEMORY| MemTotal            196642372     196642372     196642372     196642372
 MEMORY| MemFree             189440044     189440044     189440044     189440044
 MEMORY| Buffers                     0             0             0             0
 MEMORY| Cached                1489664       1489664       1489664       1489664
 MEMORY| Slab                   706228        706228        706228        706228
 MEMORY| SReclaimable           130200        130200        130200        130200
 MEMORY| MemLikelyFree       191059908     191059908     191059908     191059908


 GENERATE|  Preliminary Number of Bonds generated:                             0
 GENERATE|  Achieved consistency in connectivity generation.

 *******************************************************************************
 *******************************************************************************
 **                                                                           **
 **     #####                         ##              ##                      **
 **    ##   ##            ##          ##              ##                      **
 **   ##     ##                       ##            ######                    **
 **   ##     ##  ##   ##  ##   #####  ##  ##   ####   ##    #####    #####    **
 **   ##     ##  ##   ##  ##  ##      ## ##   ##      ##   ##   ##  ##   ##   **
 **   ##  ## ##  ##   ##  ##  ##      ####     ###    ##   ######   ######    **
 **    ##  ###   ##   ##  ##  ##      ## ##      ##   ##   ##       ##        **
 **     #######   #####   ##   #####  ##  ##  ####    ##    #####   ##        **
 **           ##                                                    ##        **
 **                                                                           **
 **                                                ... make the atoms dance   **
 **                                                                           **
 **            Copyright (C) by CP2K developers group (2000-2023)             **
 **                      J. Chem. Phys. 152, 194103 (2020)                    **
 **                                                                           **
 *******************************************************************************


 TOTAL NUMBERS AND MAXIMUM NUMBERS

  Total number of            - Atomic kinds:                                   3
                             - Atoms:                                         12
                             - Shell sets:                                    12
                             - Shells:                                        44
                             - Primitive Cartesian functions:                 84
                             - Cartesian basis functions:                     96
                             - Spherical basis functions:                     92

  Maximum angular momentum of- Orbital basis functions:                        2
                             - Local part of the GTH pseudopotential:          2
                             - Non-local part of the GTH pseudopotential:      0


 SCF PARAMETERS         Density guess:                                   RESTART
                        --------------------------------------------------------
                        max_scf:                                             500
                        max_scf_history:                                       0
                        max_diis:                                              4
                        --------------------------------------------------------
                        eps_scf:                                        1.00E-06
                        eps_scf_history:                                0.00E+00
                        eps_diis:                                       1.00E-01
                        eps_eigval:                                     1.00E-05
                        --------------------------------------------------------
                        level_shift [a.u.]:                             0.000000
                        --------------------------------------------------------
                        Outer loop SCF in use 
                        No variables optimised in outer loop
                        eps_scf                                         1.00E-06
                        max_scf                                               10
                        No outer loop optimization
                        step_size                                       5.00E-01

 BFGS| Use rational function optimization for step estimation:                NO
 BFGS| Use model Hessian for initial guess:                                  YES
 BFGS| Restart Hessian:                                                       NO
 BFGS| Trust radius:                                                       0.472

 *******************************************************************************
 ***                     STARTING GEOMETRY OPTIMIZATION                      ***
 ***                                   BFGS                                  ***
 *******************************************************************************

 Number of electrons:                                                         26
 Number of occupied orbitals:                                                 13
 Number of molecular orbitals:                                                13

 Number of orbital functions:                                                 92
 Number of independent orbital functions:                                     92

 Extrapolation method: initial_guess

 *** WARNING in qs_initial_guess.F:305 :: User requested to restart the    ***
 *** wavefunction from the file named: Isolated_etOh_isolated-RESTART.wfn. ***
 *** This file does not exist. Please check the existence of the file or   ***
 *** change properly the value of the keyword WFN_RESTART_FILE_NAME.       ***
 *** Calculation continues using ATOMIC GUESS.                             ***



 SCF WAVEFUNCTION OPTIMIZATION

  ----------------------------------- OT ---------------------------------------
  Minimizer      : CG                  : conjugate gradient
  Preconditioner : FULL_ALL            : diagonalization, state selective
  Precond_solver : DEFAULT
  Line search    : 3PNT                : 3 energies
  stepsize       :    0.15000000                  energy_gap     :    0.08000000
  eps_taylor     :   0.10000E-15                  max_taylor     :             4
  ----------------------------------- OT ---------------------------------------

  Step     Update method      Time    Convergence         Total energy    Change
  ------------------------------------------------------------------------------
     1 OT CG       0.12E+00    2.3     0.18179315       -35.4191074290 -3.54E+01
     2 OT LS       0.17E+00    1.8                      -35.9423239933
     3 OT LS       0.75E-01    1.8                      -35.0068014312
     4 OT CG       0.60E-01    2.9     0.19705206       -36.6690911962 -1.25E+00
     5 OT LS       0.84E-01    1.7                      -36.8449864998
     6 OT LS       0.33E-01    1.8                      -35.9685173339
     7 OT CG       0.27E-01    2.8     0.12333800       -37.2597579999 -5.91E-01
     8 OT LS       0.37E-01    1.7                      -37.6131028567
     9 OT LS       0.49E-01    1.7                      -37.6795949437
    10 OT CG       0.39E-01    2.8     0.04712386       -37.7048553863 -4.45E-01
    11 OT LS       0.54E-01    1.7                      -37.7835232090
    12 OT LS       0.77E-01    1.7                      -37.8002153491
    13 OT CG       0.62E-01    2.8     0.02164242       -37.8090937603 -1.04E-01
    14 OT LS       0.87E-01    1.7                      -37.8325314621
    15 OT LS       0.98E-01    1.7                      -37.8358381261
    16 OT CG       0.78E-01    2.8     0.01251082       -37.8362002540 -2.71E-02
    17 OT LS       0.11E+00    1.7                      -37.8439972849
    18 OT LS       0.84E-01    1.7                      -37.8432850103
    19 OT CG       0.67E-01    2.8     0.00664267       -37.8440303353 -7.83E-03
    20 OT LS       0.94E-01    1.7                      -37.8461203262
    21 OT LS       0.82E-01    1.7                      -37.8461464204
    22 OT CG       0.65E-01    2.8     0.00340510       -37.8461921505 -2.16E-03
    23 OT LS       0.92E-01    1.7                      -37.8467066180
    24 OT LS       0.76E-01    1.7                      -37.8466931250
    25 OT CG       0.61E-01    2.8     0.00199121       -37.8467162124 -5.24E-04
    26 OT LS       0.85E-01    1.7                      -37.8469082798
    27 OT LS       0.91E-01    1.7                      -37.8469317655
    28 OT CG       0.73E-01    2.8     0.00100760       -37.8469328737 -2.17E-04
    29 OT LS       0.10E+00    1.7                      -37.8469919722
    30 OT LS       0.11E+00    1.7                      -37.8469990262
    31 OT CG       0.88E-01    2.8     0.00051226       -37.8469993094 -6.64E-05
    32 OT LS       0.12E+00    1.7                      -37.8470137472
    33 OT LS       0.92E-01    1.7                      -37.8470122209
    34 OT CG       0.74E-01    2.8     0.00033415       -37.8470137846 -1.45E-05
    35 OT LS       0.10E+00    1.7                      -37.8470188179
    36 OT LS       0.75E-01    1.7                      -37.8470181294
    37 OT CG       0.60E-01    2.8     0.00018901       -37.8470188202 -5.04E-06
    38 OT LS       0.84E-01    1.7                      -37.8470204986
    39 OT LS       0.86E-01    1.7                      -37.8470206664
    40 OT CG       0.69E-01    2.8     0.00008367       -37.8470206674 -1.85E-06
    41 OT LS       0.97E-01    1.7                      -37.8470210826
    42 OT LS       0.12E+00    1.7                      -37.8470211569
    43 OT CG       0.98E-01    2.8     0.00005052       -37.8470211789 -5.12E-07
    44 OT LS       0.14E+00    1.7                      -37.8470213016
    45 OT LS       0.83E-01    1.7                      -37.8470212523
    46 OT CG       0.66E-01    2.8     0.00002945       -37.8470213056 -1.27E-07
    47 OT LS       0.93E-01    1.7                      -37.8470213458
    48 OT LS       0.80E-01    1.7                      -37.8470213457
    49 OT CG       0.64E-01    2.8     0.00001724       -37.8470213469 -4.13E-08
    50 OT LS       0.89E-01    1.7                      -37.8470213613
    51 OT LS       0.88E-01    1.7                      -37.8470213625
    52 OT CG       0.70E-01    2.8     0.00000894       -37.8470213625 -1.56E-08
    53 OT LS       0.98E-01    1.7                      -37.8470213667
    54 OT LS       0.96E-01    1.7                      -37.8470213671
    55 OT CG       0.77E-01    2.8     0.00000515       -37.8470213671 -4.60E-09
    56 OT LS       0.11E+00    1.7                      -37.8470213685
    57 OT LS       0.94E-01    1.7                      -37.8470213685
    58 OT CG       0.75E-01    2.8     0.00000281       -37.8470213686 -1.49E-09
    59 OT LS       0.11E+00    1.7                      -37.8470213690
    60 OT LS       0.91E-01    1.7                      -37.8470213690
    61 OT CG       0.73E-01    2.8     0.00000177       -37.8470213690 -4.31E-10
    62 OT LS       0.10E+00    1.7                      -37.8470213691
    63 OT LS       0.77E-01    1.7                      -37.8470213691
    64 OT CG       0.62E-01    2.8     0.00000096       -37.8470213691 -1.44E-10

  *** SCF run converged in    64 steps ***


  Electronic density on regular grids:        -25.9999983594        0.0000016406
  Core density on regular grids:               25.9999865799       -0.0000134201
  Total charge density on r-space grids:       -0.0000117794
  Total charge density g-space grids:          -0.0000117794

  Overlap energy of the core charge distribution:               0.00000195469355
  Self energy of the core charge distribution:                -92.81502253024964
  Core Hamiltonian energy:                                     28.52384940979626
  Hartree energy:                                              38.09619537198174
  Exchange-correlation energy:                                -11.64844266535763
  Dispersion energy:                                           -0.00360290999370

  Total energy:                                               -37.84702136912944

  outer SCF iter =    1 RMS gradient =   0.96E-06 energy =        -37.8470213691
  outer SCF loop converged in   1 iterations or   64 steps


 ENERGY| Total FORCE_EVAL ( QS ) energy [a.u.]:              -37.847021369174172

 --------  Informations at step =     0 ------------
  Optimization Method        =                 BFGS
  Total Energy               =       -37.8470213692
  Used time                  =              137.149
 ---------------------------------------------------

 --------------------------
 OPTIMIZATION STEP:      1
 --------------------------

 Number of electrons:                                                         26
 Number of occupied orbitals:                                                 13
 Number of molecular orbitals:                                                13

 Number of orbital functions:                                                 92
 Number of independent orbital functions:                                     92

 Extrapolation method: PS Nth order
 Extrapolation order:  0


 SCF WAVEFUNCTION OPTIMIZATION

  ----------------------------------- OT ---------------------------------------
  Minimizer      : CG                  : conjugate gradient
  Preconditioner : FULL_ALL            : diagonalization, state selective
  Precond_solver : DEFAULT
  Line search    : 3PNT                : 3 energies
  stepsize       :    0.15000000                  energy_gap     :    0.08000000
  eps_taylor     :   0.10000E-15                  max_taylor     :             4
  ----------------------------------- OT ---------------------------------------

  Step     Update method      Time    Convergence         Total energy    Change
  ------------------------------------------------------------------------------
     1 OT CG       0.12E+00    2.1     0.00303526       -37.8458401736 -3.78E+01
     2 OT LS       0.17E+00    1.7                      -37.8468340134
     3 OT LS       0.24E+00    1.7                      -37.8470475744
     4 OT CG       0.19E+00    2.8     0.00052954       -37.8471707272 -1.33E-03
     5 OT LS       0.27E+00    1.7                      -37.8471763250
     6 OT LS       0.11E+00    1.7                      -37.8471454480
     7 OT CG       0.85E-01    2.8     0.00014423       -37.8471884491 -1.77E-05
     8 OT LS       0.12E+00    1.7                      -37.8471898069
     9 OT LS       0.12E+00    1.7                      -37.8471899318
    10 OT CG       0.95E-01    2.8     0.00003144       -37.8471899319 -1.48E-06
    11 OT LS       0.13E+00    1.7                      -37.8471900072
    12 OT LS       0.14E+00    1.7                      -37.8471900163
    13 OT CG       0.11E+00    2.8     0.00000842       -37.8471900167 -8.47E-08
    14 OT LS       0.16E+00    1.7                      -37.8471900224
    15 OT LS       0.14E+00    1.7                      -37.8471900225
    16 OT CG       0.11E+00    2.8     0.00000246       -37.8471900226 -5.98E-09
    17 OT LS       0.16E+00    1.7                      -37.8471900231
    18 OT LS       0.15E+00    1.7                      -37.8471900232
    19 OT CG       0.12E+00    2.8     0.00000026       -37.8471900232 -5.39E-10

  *** SCF run converged in    19 steps ***


  Electronic density on regular grids:        -25.9999983032        0.0000016968
  Core density on regular grids:               25.9999866218       -0.0000133782
  Total charge density on r-space grids:       -0.0000116814
  Total charge density g-space grids:          -0.0000116814

  Overlap energy of the core charge distribution:               0.00000173098742
  Self energy of the core charge distribution:                -92.81502253024964
  Core Hamiltonian energy:                                     28.45330759586023
  Hartree energy:                                              38.14637119286400
  Exchange-correlation energy:                                -11.62825767607531
  Dispersion energy:                                           -0.00359033656082

  Total energy:                                               -37.84719002317412

  outer SCF iter =    1 RMS gradient =   0.26E-06 energy =        -37.8471900232
  outer SCF loop converged in   1 iterations or   19 steps


 ENERGY| Total FORCE_EVAL ( QS ) energy [a.u.]:              -37.847190023180438

 --------  Informations at step =     1 ------------
  Optimization Method        =                 BFGS
  Total Energy               =       -37.8471900232
  Real energy change         =        -0.0001686540
  Predicted change in energy =        -0.0018161216
  Scaling factor             =         0.0000000000
  Step size                  =         0.0800817708
  Trust radius               =         0.4724315332
  Decrease in energy         =                  YES
  Used time                  =               42.976

  Convergence check :
  Max. step size             =         0.0800817708
  Conv. limit for step size  =         0.0030000000
  Convergence in step size   =                   NO
  RMS step size              =         0.0288029394
  Conv. limit for RMS step   =         0.0015000000
  Convergence in RMS step    =                   NO
  Max. gradient              =         0.0202311482
  Conv. limit for gradients  =         0.0004500000
  Conv. for gradients        =                   NO
  RMS gradient               =         0.0050323803
  Conv. limit for RMS grad.  =         0.0003000000
  Conv. for gradients        =                   NO
 ---------------------------------------------------
 Estimated peak process memory after this step [MiB]                         606

 --------------------------
 OPTIMIZATION STEP:      2
 --------------------------

 Number of electrons:                                                         26
 Number of occupied orbitals:                                                 13
 Number of molecular orbitals:                                                13

 Number of orbital functions:                                                 92
 Number of independent orbital functions:                                     92

 Extrapolation method: PS Nth order
 Extrapolation order:  1


 SCF WAVEFUNCTION OPTIMIZATION

  ----------------------------------- OT ---------------------------------------
  Minimizer      : CG                  : conjugate gradient
  Preconditioner : FULL_ALL            : diagonalization, state selective
  Precond_solver : DEFAULT
  Line search    : 3PNT                : 3 energies
  stepsize       :    0.15000000                  energy_gap     :    0.08000000
  eps_taylor     :   0.10000E-15                  max_taylor     :             4
  ----------------------------------- OT ---------------------------------------

  Step     Update method      Time    Convergence         Total energy    Change
  ------------------------------------------------------------------------------
     1 OT CG       0.12E+00    2.0     0.00445214       -37.8454645023 -3.78E+01
     2 OT LS       0.17E+00    1.7                      -37.8476045854
     3 OT LS       0.24E+00    1.7                      -37.8480661254
     4 OT CG       0.19E+00    2.8     0.00070690       -37.8483362854 -2.87E-03
     5 OT LS       0.27E+00    1.7                      -37.8483525628
     6 OT LS       0.11E+00    1.7                      -37.8483032657
     7 OT CG       0.90E-01    2.8     0.00019456       -37.8483699942 -3.37E-05
     8 OT LS       0.13E+00    1.7                      -37.8483724014
     9 OT LS       0.11E+00    1.7                      -37.8483724254
    10 OT CG       0.88E-01    2.8     0.00004234       -37.8483724810 -2.49E-06
    11 OT LS       0.12E+00    1.7                      -37.8483726182
    12 OT LS       0.16E+00    1.7                      -37.8483726445
    13 OT CG       0.13E+00    2.8     0.00000904       -37.8483726544 -1.73E-07
    14 OT LS       0.18E+00    1.7                      -37.8483726618
    15 OT LS       0.15E+00    1.7                      -37.8483726617
    16 OT CG       0.12E+00    2.8     0.00000274       -37.8483726620 -7.53E-09
    17 OT LS       0.17E+00    1.7                      -37.8483726625
    18 OT LS       0.13E+00    1.7                      -37.8483726625
    19 OT CG       0.11E+00    2.8     0.00000032       -37.8483726625 -5.93E-10

  *** SCF run converged in    19 steps ***


  Electronic density on regular grids:        -25.9999983847        0.0000016153
  Core density on regular grids:               25.9999866107       -0.0000133893
  Total charge density on r-space grids:       -0.0000117740
  Total charge density g-space grids:          -0.0000117740

  Overlap energy of the core charge distribution:               0.00000167559368
  Self energy of the core charge distribution:                -92.81502253024964
  Core Hamiltonian energy:                                     28.43835686869271
  Hartree energy:                                              38.15547394680505
  Exchange-correlation energy:                                -11.62358361869883
  Dispersion energy:                                           -0.00359900469222

  Total energy:                                               -37.84837266254925

  outer SCF iter =    1 RMS gradient =   0.32E-06 energy =        -37.8483726625
  outer SCF loop converged in   1 iterations or   19 steps


 ENERGY| Total FORCE_EVAL ( QS ) energy [a.u.]:              -37.848372662558681

 --------  Informations at step =     2 ------------
  Optimization Method        =                 BFGS
  Total Energy               =       -37.8483726626
  Real energy change         =        -0.0011826394
  Predicted change in energy =        -0.0011026435
  Scaling factor             =         0.0000000000
  Step size                  =         0.0389906240
  Trust radius               =         0.4724315332
  Decrease in energy         =                  YES
  Used time                  =               43.093

  Convergence check :
  Max. step size             =         0.0389906240
  Conv. limit for step size  =         0.0030000000
  Convergence in step size   =                   NO
  RMS step size              =         0.0157560183
  Conv. limit for RMS step   =         0.0015000000
  Convergence in RMS step    =                   NO
  Max. gradient              =         0.0032569637
  Conv. limit for gradients  =         0.0004500000
  Conv. for gradients        =                   NO
  RMS gradient               =         0.0009286271
  Conv. limit for RMS grad.  =         0.0003000000
  Conv. for gradients        =                   NO
 ---------------------------------------------------
 Estimated peak process memory after this step [MiB]                         606

 --------------------------
 OPTIMIZATION STEP:      3
 --------------------------

 Number of electrons:                                                         26
 Number of occupied orbitals:                                                 13
 Number of molecular orbitals:                                                13

 Number of orbital functions:                                                 92
 Number of independent orbital functions:                                     92

 Extrapolation method: PS Nth order
 Extrapolation order:  2


 SCF WAVEFUNCTION OPTIMIZATION

  ----------------------------------- OT ---------------------------------------
  Minimizer      : CG                  : conjugate gradient
  Preconditioner : FULL_ALL            : diagonalization, state selective
  Precond_solver : DEFAULT
  Line search    : 3PNT                : 3 energies
  stepsize       :    0.15000000                  energy_gap     :    0.08000000
  eps_taylor     :   0.10000E-15                  max_taylor     :             4
  ----------------------------------- OT ---------------------------------------

  Step     Update method      Time    Convergence         Total energy    Change
  ------------------------------------------------------------------------------
     1 OT CG       0.12E+00    2.1     0.00585255       -37.8434348687 -3.78E+01
     2 OT LS       0.17E+00    1.7                      -37.8471387293
     3 OT LS       0.24E+00    1.7                      -37.8479411651
     4 OT CG       0.19E+00    2.8     0.00078892       -37.8484175921 -4.98E-03
     5 OT LS       0.27E+00    1.7                      -37.8484555289
     6 OT LS       0.13E+00    1.7                      -37.8484108432
     7 OT CG       0.11E+00    2.8     0.00013077       -37.8484666483 -4.91E-05
     8 OT LS       0.15E+00    1.7                      -37.8484679928
     9 OT LS       0.14E+00    1.7                      -37.8484680755
    10 OT CG       0.11E+00    2.8     0.00003928       -37.8484680798 -1.43E-06
    11 OT LS       0.16E+00    1.7                      -37.8484681985
    12 OT LS       0.13E+00    1.7                      -37.8484681967
    13 OT CG       0.11E+00    2.8     0.00001112       -37.8484682012 -1.21E-07
    14 OT LS       0.15E+00    1.7                      -37.8484682100
    15 OT LS       0.12E+00    1.7                      -37.8484682098
    16 OT CG       0.97E-01    2.8     0.00000383       -37.8484682102 -8.99E-09
    17 OT LS       0.14E+00    1.7                      -37.8484682113
    18 OT LS       0.14E+00    1.7                      -37.8484682114
    19 OT CG       0.11E+00    2.8     0.00000045       -37.8484682114 -1.20E-09

  *** SCF run converged in    19 steps ***


  Electronic density on regular grids:        -25.9999984129        0.0000015871
  Core density on regular grids:               25.9999866512       -0.0000133488
  Total charge density on r-space grids:       -0.0000117618
  Total charge density g-space grids:          -0.0000117618

  Overlap energy of the core charge distribution:               0.00000166139359
  Self energy of the core charge distribution:                -92.81502253024964
  Core Hamiltonian energy:                                     28.42627049627826
  Hartree energy:                                              38.16407106130558
  Exchange-correlation energy:                                -11.62018733698430
  Dispersion energy:                                           -0.00360156313519

  Total energy:                                               -37.84846821139170

  outer SCF iter =    1 RMS gradient =   0.45E-06 energy =        -37.8484682114
  outer SCF loop converged in   1 iterations or   19 steps


 ENERGY| Total FORCE_EVAL ( QS ) energy [a.u.]:              -37.848468211410918

 --------  Informations at step =     3 ------------
  Optimization Method        =                 BFGS
  Total Energy               =       -37.8484682114
  Real energy change         =        -0.0000955489
  Predicted change in energy =        -0.0000876550
  Scaling factor             =         0.0000000000
  Step size                  =         0.0203136212
  Trust radius               =         0.4724315332
  Decrease in energy         =                  YES
  Used time                  =               43.126

  Convergence check :
  Max. step size             =         0.0203136212
  Conv. limit for step size  =         0.0030000000
  Convergence in step size   =                   NO
  RMS step size              =         0.0071073048
  Conv. limit for RMS step   =         0.0015000000
  Convergence in RMS step    =                   NO
  Max. gradient              =         0.0020500934
  Conv. limit for gradients  =         0.0004500000
  Conv. for gradients        =                   NO
  RMS gradient               =         0.0006769707
  Conv. limit for RMS grad.  =         0.0003000000
  Conv. for gradients        =                   NO
 ---------------------------------------------------
 Estimated peak process memory after this step [MiB]                         606

 --------------------------
 OPTIMIZATION STEP:      4
 --------------------------

 Number of electrons:                                                         26
 Number of occupied orbitals:                                                 13
 Number of molecular orbitals:                                                13

 Number of orbital functions:                                                 92
 Number of independent orbital functions:                                     92

 Extrapolation method: PS Nth order
 Extrapolation order:  2


 SCF WAVEFUNCTION OPTIMIZATION

  ----------------------------------- OT ---------------------------------------
  Minimizer      : CG                  : conjugate gradient
  Preconditioner : FULL_ALL            : diagonalization, state selective
  Precond_solver : DEFAULT
  Line search    : 3PNT                : 3 energies
  stepsize       :    0.15000000                  energy_gap     :    0.08000000
  eps_taylor     :   0.10000E-15                  max_taylor     :             4
  ----------------------------------- OT ---------------------------------------

  Step     Update method      Time    Convergence         Total energy    Change
  ------------------------------------------------------------------------------
     1 OT CG       0.12E+00    2.0     0.00165566       -37.8481427979 -3.78E+01
     2 OT LS       0.17E+00    1.7                      -37.8484374311
     3 OT LS       0.24E+00    1.7                      -37.8484999539
     4 OT CG       0.19E+00    2.8     0.00036664       -37.8485344465 -3.92E-04
     5 OT LS       0.27E+00    1.7                      -37.8485353151
     6 OT LS       0.98E-01    1.7                      -37.8485189470
     7 OT CG       0.79E-01    2.8     0.00008351       -37.8485423506 -7.90E-06
     8 OT LS       0.11E+00    1.7                      -37.8485428010
     9 OT LS       0.13E+00    1.7                      -37.8485428659
    10 OT CG       0.10E+00    2.8     0.00002097       -37.8485428737 -5.23E-07
    11 OT LS       0.14E+00    1.7                      -37.8485429079
    12 OT LS       0.14E+00    1.7                      -37.8485429112
    13 OT CG       0.11E+00    2.8     0.00000541       -37.8485429112 -3.75E-08
    14 OT LS       0.16E+00    1.7                      -37.8485429134
    15 OT LS       0.13E+00    1.7                      -37.8485429133
    16 OT CG       0.10E+00    2.8     0.00000109       -37.8485429134 -2.24E-09
    17 OT LS       0.14E+00    1.7                      -37.8485429135
    18 OT LS       0.19E+00    1.7                      -37.8485429135
    19 OT CG       0.15E+00    2.8     0.00000022       -37.8485429135 -1.32E-10

  *** SCF run converged in    19 steps ***


  Electronic density on regular grids:        -25.9999984017        0.0000015983
  Core density on regular grids:               25.9999865670       -0.0000134330
  Total charge density on r-space grids:       -0.0000118348
  Total charge density g-space grids:          -0.0000118348

  Overlap energy of the core charge distribution:               0.00000164543655
  Self energy of the core charge distribution:                -92.81502253024964
  Core Hamiltonian energy:                                     28.41229022118381
  Hartree energy:                                              38.17401184237899
  Exchange-correlation energy:                                -11.61622219629047
  Dispersion energy:                                           -0.00360189600215

  Total energy:                                               -37.84854291354291

  outer SCF iter =    1 RMS gradient =   0.22E-06 energy =        -37.8485429135
  outer SCF loop converged in   1 iterations or   19 steps


 ENERGY| Total FORCE_EVAL ( QS ) energy [a.u.]:              -37.848542913546297

 --------  Informations at step =     4 ------------
  Optimization Method        =                 BFGS
  Total Energy               =       -37.8485429135
  Real energy change         =        -0.0000747021
  Predicted change in energy =        -0.0000580112
  Scaling factor             =         0.0000000000
  Step size                  =         0.0302771878
  Trust radius               =         0.4724315332
  Decrease in energy         =                  YES
  Used time                  =               43.017

  Convergence check :
  Max. step size             =         0.0302771878
  Conv. limit for step size  =         0.0030000000
  Convergence in step size   =                   NO
  RMS step size              =         0.0080372271
  Conv. limit for RMS step   =         0.0015000000
  Convergence in RMS step    =                   NO
  Max. gradient              =         0.0010105147
  Conv. limit for gradients  =         0.0004500000
  Conv. for gradients        =                   NO
  RMS gradient               =         0.0003750292
  Conv. limit for RMS grad.  =         0.0003000000
  Conv. for gradients        =                   NO
 ---------------------------------------------------
 Estimated peak process memory after this step [MiB]                         607

 --------------------------
 OPTIMIZATION STEP:      5
 --------------------------

 Number of electrons:                                                         26
 Number of occupied orbitals:                                                 13
 Number of molecular orbitals:                                                13

 Number of orbital functions:                                                 92
 Number of independent orbital functions:                                     92

 Extrapolation method: PS Nth order
 Extrapolation order:  2


 SCF WAVEFUNCTION OPTIMIZATION

  ----------------------------------- OT ---------------------------------------
  Minimizer      : CG                  : conjugate gradient
  Preconditioner : FULL_ALL            : diagonalization, state selective
  Precond_solver : DEFAULT
  Line search    : 3PNT                : 3 energies
  stepsize       :    0.15000000                  energy_gap     :    0.08000000
  eps_taylor     :   0.10000E-15                  max_taylor     :             4
  ----------------------------------- OT ---------------------------------------

  Step     Update method      Time    Convergence         Total energy    Change
  ------------------------------------------------------------------------------
     1 OT CG       0.12E+00    2.0     0.00081210       -37.8484796314 -3.78E+01
     2 OT LS       0.17E+00    1.7                      -37.8485501136
     3 OT LS       0.23E+00    1.7                      -37.8485647728
     4 OT CG       0.19E+00    2.8     0.00023881       -37.8485723051 -9.27E-05
     5 OT LS       0.94E-01    1.7                      -37.8485718728
     6 OT LS       0.91E-01    1.7                      -37.8485754030
     7 OT CG       0.73E-01    2.8     0.00003839       -37.8485754065 -3.10E-06
     8 OT LS       0.10E+00    1.7                      -37.8485755023
     9 OT LS       0.14E+00    1.7                      -37.8485755226
    10 OT CG       0.12E+00    2.8     0.00001124       -37.8485755335 -1.27E-07
    11 OT LS       0.16E+00    1.7                      -37.8485755425
    12 OT LS       0.12E+00    1.7                      -37.8485755415
    13 OT CG       0.96E-01    2.8     0.00000199       -37.8485755426 -9.09E-09
    14 OT LS       0.13E+00    1.7                      -37.8485755429
    15 OT LS       0.16E+00    1.7                      -37.8485755429
    16 OT CG       0.13E+00    2.8     0.00000047       -37.8485755430 -3.90E-10

  *** SCF run converged in    16 steps ***


  Electronic density on regular grids:        -25.9999983454        0.0000016546
  Core density on regular grids:               25.9999865073       -0.0000134927
  Total charge density on r-space grids:       -0.0000118381
  Total charge density g-space grids:          -0.0000118381

  Overlap energy of the core charge distribution:               0.00000165735768
  Self energy of the core charge distribution:                -92.81502253024964
  Core Hamiltonian energy:                                     28.40978390085617
  Hartree energy:                                              38.17594538787277
  Exchange-correlation energy:                                -11.61568378634403
  Dispersion energy:                                           -0.00360017244818

  Total energy:                                               -37.84857554295522

  outer SCF iter =    1 RMS gradient =   0.47E-06 energy =        -37.8485755430
  outer SCF loop converged in   1 iterations or   16 steps


 ENERGY| Total FORCE_EVAL ( QS ) energy [a.u.]:              -37.848575542976356

 --------  Informations at step =     5 ------------
  Optimization Method        =                 BFGS
  Total Energy               =       -37.8485755430
  Real energy change         =        -0.0000326294
  Predicted change in energy =        -0.0000227349
  Scaling factor             =         0.0000000000
  Step size                  =         0.0192565249
  Trust radius               =         0.4724315332
  Decrease in energy         =                  YES
  Used time                  =               36.893

  Convergence check :
  Max. step size             =         0.0192565249
  Conv. limit for step size  =         0.0030000000
  Convergence in step size   =                   NO
  RMS step size              =         0.0057624768
  Conv. limit for RMS step   =         0.0015000000
  Convergence in RMS step    =                   NO
  Max. gradient              =         0.0012077449
  Conv. limit for gradients  =         0.0004500000
  Conv. for gradients        =                   NO
  RMS gradient               =         0.0003424506
  Conv. limit for RMS grad.  =         0.0003000000
  Conv. for gradients        =                   NO
 ---------------------------------------------------
 Estimated peak process memory after this step [MiB]                         607

 --------------------------
 OPTIMIZATION STEP:      6
 --------------------------

 Number of electrons:                                                         26
 Number of occupied orbitals:                                                 13
 Number of molecular orbitals:                                                13

 Number of orbital functions:                                                 92
 Number of independent orbital functions:                                     92

 Extrapolation method: PS Nth order
 Extrapolation order:  2


 SCF WAVEFUNCTION OPTIMIZATION

  ----------------------------------- OT ---------------------------------------
  Minimizer      : CG                  : conjugate gradient
  Preconditioner : FULL_ALL            : diagonalization, state selective
  Precond_solver : DEFAULT
  Line search    : 3PNT                : 3 energies
  stepsize       :    0.15000000                  energy_gap     :    0.08000000
  eps_taylor     :   0.10000E-15                  max_taylor     :             4
  ----------------------------------- OT ---------------------------------------

  Step     Update method      Time    Convergence         Total energy    Change
  ------------------------------------------------------------------------------
     1 OT CG       0.12E+00    2.1     0.00029793       -37.8485856117 -3.78E+01
     2 OT LS       0.17E+00    1.7                      -37.8485951356
     3 OT LS       0.24E+00    1.7                      -37.8485971445
     4 OT CG       0.19E+00    2.8     0.00006749       -37.8485982298 -1.26E-05
     5 OT LS       0.27E+00    1.7                      -37.8485983603
     6 OT LS       0.11E+00    1.7                      -37.8485979055
     7 OT CG       0.87E-01    2.8     0.00001032       -37.8485985261 -2.96E-07
     8 OT LS       0.12E+00    1.7                      -37.8485985341
     9 OT LS       0.16E+00    1.7                      -37.8485985356
    10 OT CG       0.13E+00    2.8     0.00000235       -37.8485985361 -1.00E-08
    11 OT LS       0.18E+00    1.7                      -37.8485985366
    12 OT LS       0.14E+00    1.7                      -37.8485985365
    13 OT CG       0.11E+00    2.8     0.00000068       -37.8485985366 -4.59E-10

  *** SCF run converged in    13 steps ***


  Electronic density on regular grids:        -25.9999982309        0.0000017691
  Core density on regular grids:               25.9999865215       -0.0000134785
  Total charge density on r-space grids:       -0.0000117094
  Total charge density g-space grids:          -0.0000117094

  Overlap energy of the core charge distribution:               0.00000167610922
  Self energy of the core charge distribution:                -92.81502253024964
  Core Hamiltonian energy:                                     28.41222848186720
  Hartree energy:                                              38.17432817392262
  Exchange-correlation energy:                                -11.61653570216232
  Dispersion energy:                                           -0.00359863605721

  Total energy:                                               -37.84859853657013

  outer SCF iter =    1 RMS gradient =   0.68E-06 energy =        -37.8485985366
  outer SCF loop converged in   1 iterations or   13 steps


 ENERGY| Total FORCE_EVAL ( QS ) energy [a.u.]:              -37.848598536603170

 --------  Informations at step =     6 ------------
  Optimization Method        =                 BFGS
  Total Energy               =       -37.8485985366
  Real energy change         =        -0.0000229936
  Predicted change in energy =        -0.0000174635
  Scaling factor             =         0.0000000000
  Step size                  =         0.0185362944
  Trust radius               =         0.4724315332
  Decrease in energy         =                  YES
  Used time                  =               30.698

  Convergence check :
  Max. step size             =         0.0185362944
  Conv. limit for step size  =         0.0030000000
  Convergence in step size   =                   NO
  RMS step size              =         0.0063220488
  Conv. limit for RMS step   =         0.0015000000
  Convergence in RMS step    =                   NO
  Max. gradient              =         0.0010363106
  Conv. limit for gradients  =         0.0004500000
  Conv. for gradients        =                   NO
  RMS gradient               =         0.0003351150
  Conv. limit for RMS grad.  =         0.0003000000
  Conv. for gradients        =                   NO
 ---------------------------------------------------
 Estimated peak process memory after this step [MiB]                         607

 --------------------------
 OPTIMIZATION STEP:      7
 --------------------------

 Number of electrons:                                                         26
 Number of occupied orbitals:                                                 13
 Number of molecular orbitals:                                                13

 Number of orbital functions:                                                 92
 Number of independent orbital functions:                                     92

 Extrapolation method: PS Nth order
 Extrapolation order:  2


 SCF WAVEFUNCTION OPTIMIZATION

  ----------------------------------- OT ---------------------------------------
  Minimizer      : CG                  : conjugate gradient
  Preconditioner : FULL_ALL            : diagonalization, state selective
  Precond_solver : DEFAULT
  Line search    : 3PNT                : 3 energies
  stepsize       :    0.15000000                  energy_gap     :    0.08000000
  eps_taylor     :   0.10000E-15                  max_taylor     :             4
  ----------------------------------- OT ---------------------------------------

  Step     Update method      Time    Convergence         Total energy    Change
  ------------------------------------------------------------------------------
     1 OT CG       0.12E+00    2.1     0.00031251       -37.8485943794 -3.78E+01
     2 OT LS       0.17E+00    1.7                      -37.8486048950
     3 OT LS       0.24E+00    1.7                      -37.8486071406
     4 OT CG       0.19E+00    2.8     0.00006242       -37.8486084085 -1.40E-05
     5 OT LS       0.27E+00    1.7                      -37.8486084808
     6 OT LS       0.10E+00    1.7                      -37.8486080489
     7 OT CG       0.84E-01    2.8     0.00001284       -37.8486086520 -2.44E-07
     8 OT LS       0.12E+00    1.7                      -37.8486086631
     9 OT LS       0.13E+00    1.7                      -37.8486086646
    10 OT CG       0.10E+00    2.8     0.00000421       -37.8486086647 -1.27E-08
    11 OT LS       0.14E+00    1.7                      -37.8486086659
    12 OT LS       0.12E+00    1.7                      -37.8486086659
    13 OT CG       0.95E-01    2.8     0.00000097       -37.8486086659 -1.26E-09

  *** SCF run converged in    13 steps ***


  Electronic density on regular grids:        -25.9999981748        0.0000018252
  Core density on regular grids:               25.9999865389       -0.0000134611
  Total charge density on r-space grids:       -0.0000116359
  Total charge density g-space grids:          -0.0000116359

  Overlap energy of the core charge distribution:               0.00000168114884
  Self energy of the core charge distribution:                -92.81502253024964
  Core Hamiltonian energy:                                     28.41563579239622
  Hartree energy:                                              38.17186934375346
  Exchange-correlation energy:                                -11.61749468926597
  Dispersion energy:                                           -0.00359826372723

  Total energy:                                               -37.84860866594431

  outer SCF iter =    1 RMS gradient =   0.97E-06 energy =        -37.8486086659
  outer SCF loop converged in   1 iterations or   13 steps


 ENERGY| Total FORCE_EVAL ( QS ) energy [a.u.]:              -37.848608666020020

 --------  Informations at step =     7 ------------
  Optimization Method        =                 BFGS
  Total Energy               =       -37.8486086660
  Real energy change         =        -0.0000101294
  Predicted change in energy =        -0.0000079309
  Scaling factor             =         0.0000000000
  Step size                  =         0.0097149791
  Trust radius               =         0.4724315332
  Decrease in energy         =                  YES
  Used time                  =               30.723

  Convergence check :
  Max. step size             =         0.0097149791
  Conv. limit for step size  =         0.0030000000
  Convergence in step size   =                   NO
  RMS step size              =         0.0039623237
  Conv. limit for RMS step   =         0.0015000000
  Convergence in RMS step    =                   NO
  Max. gradient              =         0.0006242784
  Conv. limit for gradients  =         0.0004500000
  Conv. for gradients        =                   NO
  RMS gradient               =         0.0002374314
  Conv. limit for RMS grad.  =         0.0003000000
  Conv. in RMS gradients     =                  YES
 ---------------------------------------------------
 Estimated peak process memory after this step [MiB]                         607

 --------------------------
 OPTIMIZATION STEP:      8
 --------------------------

 Number of electrons:                                                         26
 Number of occupied orbitals:                                                 13
 Number of molecular orbitals:                                                13

 Number of orbital functions:                                                 92
 Number of independent orbital functions:                                     92

 Extrapolation method: PS Nth order
 Extrapolation order:  2


 SCF WAVEFUNCTION OPTIMIZATION

  ----------------------------------- OT ---------------------------------------
  Minimizer      : CG                  : conjugate gradient
  Preconditioner : FULL_ALL            : diagonalization, state selective
  Precond_solver : DEFAULT
  Line search    : 3PNT                : 3 energies
  stepsize       :    0.15000000                  energy_gap     :    0.08000000
  eps_taylor     :   0.10000E-15                  max_taylor     :             4
  ----------------------------------- OT ---------------------------------------

  Step     Update method      Time    Convergence         Total energy    Change
  ------------------------------------------------------------------------------
     1 OT CG       0.12E+00    2.0     0.00021945       -37.8486066806 -3.78E+01
     2 OT LS       0.17E+00    1.7                      -37.8486118546
     3 OT LS       0.24E+00    1.7                      -37.8486129511
     4 OT CG       0.19E+00    2.8     0.00004257       -37.8486135536 -6.87E-06
     5 OT LS       0.27E+00    1.7                      -37.8486136179
     6 OT LS       0.11E+00    1.7                      -37.8486134479
     7 OT CG       0.90E-01    2.8     0.00000940       -37.8486136761 -1.22E-07
     8 OT LS       0.13E+00    1.7                      -37.8486136827
     9 OT LS       0.15E+00    1.7                      -37.8486136836
    10 OT CG       0.12E+00    2.8     0.00000223       -37.8486136838 -7.68E-09
    11 OT LS       0.16E+00    1.7                      -37.8486136841
    12 OT LS       0.10E+00    1.7                      -37.8486136840
    13 OT CG       0.83E-01    2.8     0.00000069       -37.8486136841 -3.06E-10

  *** SCF run converged in    13 steps ***


  Electronic density on regular grids:        -25.9999980729        0.0000019271
  Core density on regular grids:               25.9999864896       -0.0000135104
  Total charge density on r-space grids:       -0.0000115832
  Total charge density g-space grids:          -0.0000115832

  Overlap energy of the core charge distribution:               0.00000167760986
  Self energy of the core charge distribution:                -92.81502253024964
  Core Hamiltonian energy:                                     28.41846990556002
  Hartree energy:                                              38.16974547904821
  Exchange-correlation energy:                                -11.61820954159304
  Dispersion energy:                                           -0.00359867443378

  Total energy:                                               -37.84861368405837

  outer SCF iter =    1 RMS gradient =   0.69E-06 energy =        -37.8486136841
  outer SCF loop converged in   1 iterations or   13 steps


 ENERGY| Total FORCE_EVAL ( QS ) energy [a.u.]:              -37.848613684093984

 --------  Informations at step =     8 ------------
  Optimization Method        =                 BFGS
  Total Energy               =       -37.8486136841
  Real energy change         =        -0.0000050181
  Predicted change in energy =        -0.0000046893
  Scaling factor             =         0.0000000000
  Step size                  =         0.0049447256
  Trust radius               =         0.4724315332
  Decrease in energy         =                  YES
  Used time                  =               30.730

  Convergence check :
  Max. step size             =         0.0049447256
  Conv. limit for step size  =         0.0030000000
  Convergence in step size   =                   NO
  RMS step size              =         0.0026590849
  Conv. limit for RMS step   =         0.0015000000
  Convergence in RMS step    =                   NO
  Max. gradient              =         0.0003404972
  Conv. limit for gradients  =         0.0004500000
  Conv. in gradients         =                  YES
  RMS gradient               =         0.0001271890
  Conv. limit for RMS grad.  =         0.0003000000
  Conv. in RMS gradients     =                  YES
 ---------------------------------------------------
 Estimated peak process memory after this step [MiB]                         607

 --------------------------
 OPTIMIZATION STEP:      9
 --------------------------

 Number of electrons:                                                         26
 Number of occupied orbitals:                                                 13
 Number of molecular orbitals:                                                13

 Number of orbital functions:                                                 92
 Number of independent orbital functions:                                     92

 Extrapolation method: PS Nth order
 Extrapolation order:  2


 SCF WAVEFUNCTION OPTIMIZATION

  ----------------------------------- OT ---------------------------------------
  Minimizer      : CG                  : conjugate gradient
  Preconditioner : FULL_ALL            : diagonalization, state selective
  Precond_solver : DEFAULT
  Line search    : 3PNT                : 3 energies
  stepsize       :    0.15000000                  energy_gap     :    0.08000000
  eps_taylor     :   0.10000E-15                  max_taylor     :             4
  ----------------------------------- OT ---------------------------------------

  Step     Update method      Time    Convergence         Total energy    Change
  ------------------------------------------------------------------------------
     1 OT CG       0.12E+00    2.1     0.00024183       -37.8486087636 -3.78E+01
     2 OT LS       0.17E+00    1.7                      -37.8486150398
     3 OT LS       0.24E+00    1.7                      -37.8486163648
     4 OT CG       0.19E+00    2.8     0.00005019       -37.8486170827 -8.32E-06
     5 OT LS       0.27E+00    1.7                      -37.8486171482
     6 OT LS       0.11E+00    1.7                      -37.8486168900
     7 OT CG       0.86E-01    2.8     0.00001197       -37.8486172446 -1.62E-07
     8 OT LS       0.12E+00    1.7                      -37.8486172545
     9 OT LS       0.13E+00    1.7                      -37.8486172559
    10 OT CG       0.11E+00    2.8     0.00000349       -37.8486172560 -1.14E-08
    11 OT LS       0.15E+00    1.7                      -37.8486172568
    12 OT LS       0.11E+00    1.7                      -37.8486172567
    13 OT CG       0.86E-01    2.8     0.00000074       -37.8486172568 -7.87E-10

  *** SCF run converged in    13 steps ***


  Electronic density on regular grids:        -25.9999980519        0.0000019481
  Core density on regular grids:               25.9999864712       -0.0000135288
  Total charge density on r-space grids:       -0.0000115806
  Total charge density g-space grids:          -0.0000115806

  Overlap energy of the core charge distribution:               0.00000167103524
  Self energy of the core charge distribution:                -92.81502253024964
  Core Hamiltonian energy:                                     28.41943646023572
  Hartree energy:                                              38.16895974575134
  Exchange-correlation energy:                                -11.61839317975575
  Dispersion energy:                                           -0.00359942380426

  Total energy:                                               -37.84861725678735

  outer SCF iter =    1 RMS gradient =   0.74E-06 energy =        -37.8486172568
  outer SCF loop converged in   1 iterations or   13 steps


 ENERGY| Total FORCE_EVAL ( QS ) energy [a.u.]:              -37.848617256831645

 --------  Informations at step =     9 ------------
  Optimization Method        =                 BFGS
  Total Energy               =       -37.8486172568
  Real energy change         =        -0.0000035727
  Predicted change in energy =        -0.0000026237
  Scaling factor             =         0.0000000000
  Step size                  =         0.0044681479
  Trust radius               =         0.4724315332
  Decrease in energy         =                  YES
  Used time                  =               30.722

  Convergence check :
  Max. step size             =         0.0044681479
  Conv. limit for step size  =         0.0030000000
  Convergence in step size   =                   NO
  RMS step size              =         0.0016990327
  Conv. limit for RMS step   =         0.0015000000
  Convergence in RMS step    =                   NO
  Max. gradient              =         0.0003609780
  Conv. limit for gradients  =         0.0004500000
  Conv. in gradients         =                  YES
  RMS gradient               =         0.0001319405
  Conv. limit for RMS grad.  =         0.0003000000
  Conv. in RMS gradients     =                  YES
 ---------------------------------------------------
 Estimated peak process memory after this step [MiB]                         607

 --------------------------
 OPTIMIZATION STEP:     10
 --------------------------

 Number of electrons:                                                         26
 Number of occupied orbitals:                                                 13
 Number of molecular orbitals:                                                13

 Number of orbital functions:                                                 92
 Number of independent orbital functions:                                     92

 Extrapolation method: PS Nth order
 Extrapolation order:  2


 SCF WAVEFUNCTION OPTIMIZATION

  ----------------------------------- OT ---------------------------------------
  Minimizer      : CG                  : conjugate gradient
  Preconditioner : FULL_ALL            : diagonalization, state selective
  Precond_solver : DEFAULT
  Line search    : 3PNT                : 3 energies
  stepsize       :    0.15000000                  energy_gap     :    0.08000000
  eps_taylor     :   0.10000E-15                  max_taylor     :             4
  ----------------------------------- OT ---------------------------------------

  Step     Update method      Time    Convergence         Total energy    Change
  ------------------------------------------------------------------------------
     1 OT CG       0.12E+00    2.1     0.00020837       -37.8486162088 -3.78E+01
     2 OT LS       0.17E+00    1.7                      -37.8486208950
     3 OT LS       0.24E+00    1.7                      -37.8486219041
     4 OT CG       0.19E+00    2.8     0.00003391       -37.8486224912 -6.28E-06
     5 OT LS       0.27E+00    1.7                      -37.8486225201
     6 OT LS       0.11E+00    1.7                      -37.8486223987
     7 OT CG       0.87E-01    2.8     0.00000854       -37.8486225658 -7.46E-08
     8 OT LS       0.12E+00    1.7                      -37.8486225710
     9 OT LS       0.13E+00    1.7                      -37.8486225716
    10 OT CG       0.11E+00    2.8     0.00000241       -37.8486225717 -5.86E-09
    11 OT LS       0.15E+00    1.7                      -37.8486225721
    12 OT LS       0.11E+00    1.7                      -37.8486225720
    13 OT CG       0.87E-01    2.8     0.00000059       -37.8486225721 -3.78E-10

  *** SCF run converged in    13 steps ***


  Electronic density on regular grids:        -25.9999980263        0.0000019737
  Core density on regular grids:               25.9999865279       -0.0000134721
  Total charge density on r-space grids:       -0.0000114984
  Total charge density g-space grids:          -0.0000114984

  Overlap energy of the core charge distribution:               0.00000166243905
  Self energy of the core charge distribution:                -92.81502253024964
  Core Hamiltonian energy:                                     28.41933640106568
  Hartree energy:                                              38.16893608251781
  Exchange-correlation energy:                                -11.61827365168670
  Dispersion energy:                                           -0.00360053616393

  Total energy:                                               -37.84862257207773

  outer SCF iter =    1 RMS gradient =   0.59E-06 energy =        -37.8486225721
  outer SCF loop converged in   1 iterations or   13 steps


 ENERGY| Total FORCE_EVAL ( QS ) energy [a.u.]:              -37.848622572105498

 --------  Informations at step =    10 ------------
  Optimization Method        =                 BFGS
  Total Energy               =       -37.8486225721
  Real energy change         =        -0.0000053153
  Predicted change in energy =        -0.0000034448
  Scaling factor             =         0.0000000000
  Step size                  =         0.0085474912
  Trust radius               =         0.4724315332
  Decrease in energy         =                  YES
  Used time                  =               30.713

  Convergence check :
  Max. step size             =         0.0085474912
  Conv. limit for step size  =         0.0030000000
  Convergence in step size   =                   NO
  RMS step size              =         0.0030776647
  Conv. limit for RMS step   =         0.0015000000
  Convergence in RMS step    =                   NO
  Max. gradient              =         0.0006609871
  Conv. limit for gradients  =         0.0004500000
  Conv. for gradients        =                   NO
  RMS gradient               =         0.0002167986
  Conv. limit for RMS grad.  =         0.0003000000
  Conv. in RMS gradients     =                  YES
 ---------------------------------------------------
 Estimated peak process memory after this step [MiB]                         607

 *** MAXIMUM NUMBER OF OPTIMIZATION STEPS REACHED ***
 ***        EXITING GEOMETRY OPTIMIZATION         ***

 -------------------------------------------------------------------------------
 -                                                                             -
 -                                DBCSR STATISTICS                             -
 -                                                                             -
 -------------------------------------------------------------------------------
 COUNTER                                    TOTAL       BLAS       SMM       ACC
 flops     5 x     5 x    13              5686200       0.0%    100.0%      0.0%
 flops    13 x     5 x    13              6570720       0.0%    100.0%      0.0%
 flops    13 x    13 x    23             14770600       0.0%    100.0%      0.0%
 flops     5 x    13 x     5             16556800       0.0%    100.0%      0.0%
 flops    13 x    13 x     5             21523840       0.0%    100.0%      0.0%
 flops    23 x    13 x    13             21642816       0.0%    100.0%      0.0%
 flops     5 x    13 x    13             28094560       0.0%    100.0%      0.0%
 flops    23 x    13 x    23             40491776       0.0%    100.0%      0.0%
 flops    13 x    13 x    13             42050580       0.0%    100.0%      0.0%
 flops inhomo. stacks                           0       0.0%      0.0%      0.0%
 flops total                       197.387892E+06       0.0%    100.0%      0.0%
 flops max/rank                     57.955716E+06       0.0%    100.0%      0.0%
 matmuls inhomo. stacks                         0       0.0%      0.0%      0.0%
 matmuls total                              84666       0.0%    100.0%      0.0%
 number of processed stacks                 46022       0.0%    100.0%      0.0%
 average stack size                                     0.0       1.8       0.0
 marketing flops                   221.702688E+06
 -------------------------------------------------------------------------------
 # multiplications                           2779
 max memory usage/rank             635.650048E+06
 # max total images/rank                        1
 # max 3D layers                                1
 # MPI messages exchanged                  266784
 MPI messages size (bytes):
  total size                       205.213248E+06
  min size                           0.000000E+00
  max size                           4.232000E+03
  average size                     769.211243E+00
 MPI breakdown and total messages size (bytes):
             size <=      128              199560                        0
       128 < size <=     8192               67224                205213248
      8192 < size <=    32768                   0                        0
     32768 < size <=   131072                   0                        0
    131072 < size <=  4194304                   0                        0
   4194304 < size <= 16777216                   0                        0
  16777216 < size                               0                        0
 -------------------------------------------------------------------------------
 -                                                                             -
 -                      DBCSR MESSAGE PASSING PERFORMANCE                      -
 -                                                                             -
 -------------------------------------------------------------------------------
 ROUTINE             CALLS      AVE VOLUME [Bytes]
 MP_Bcast               10                     12.
 MP_Allreduce        13914                      8.
 MP_Alltoall         10860                    834.
 MP_ISend            44420                    612.
 MP_IRecv            44420                    479.
 -------------------------------------------------------------------------------

 -------------------------------------------------------------------------------
 -                                                                             -
 -                                DBM STATISTICS                               -
 -                                                                             -
 -------------------------------------------------------------------------------
    M  x    N  x    K                                          COUNT     PERCENT
 -------------------------------------------------------------------------------

 -------------------------------------------------------------------------------
 -                                                                             -
 -                                GRID STATISTICS                              -
 -                                                                             -
 -------------------------------------------------------------------------------
 LP    KERNEL             BACKEND                              COUNT     PERCENT
 2     collocate ortho    CPU                                 320598      31.31%
 3     collocate ortho    CPU                                 303574      29.65%
 3     integrate ortho    CPU                                 121178      11.83%
 2     integrate ortho    CPU                                 111929      10.93%
 4     collocate ortho    CPU                                 106024      10.35%
 4     integrate ortho    CPU                                  51410       5.02%
 5     integrate ortho    CPU                                   5027       0.49%
 0     collocate general  CPU                                   2112       0.21%
 1     integrate general  CPU                                   2112       0.21%
 -------------------------------------------------------------------------------

 MEMORY| Estimated peak process memory [MiB]                                 607

 -------------------------------------------------------------------------------
 -                                                                             -
 -                         MESSAGE PASSING PERFORMANCE                         -
 -                                                                             -
 -------------------------------------------------------------------------------

 ROUTINE             CALLS      AVE VOLUME [Bytes]
 MP_Group                5
 MP_Bcast             2623                 215695.
 MP_Allreduce         7903                    187.
 MP_Sync               113
 MP_Alltoall          2466               17168748.
 MP_SendRecv         13692                 186495.
 MP_ISendRecv         4140                 127296.
 MP_Wait             19550
 MP_comm_split         108
 MP_ISend            13400                 660299.
 MP_IRecv            13400                 658756.
 -------------------------------------------------------------------------------


 -------------------------------------------------------------------------------
 -                                                                             -
 -                           R E F E R E N C E S                               -
 -                                                                             -
 -------------------------------------------------------------------------------
 
 CP2K version 2023.2, the CP2K developers group (2023).
 CP2K is freely available from https://www.cp2k.org/ .

 Kuehne,Thomas D.; Iannuzzi,Marcella; Del Ben,Mauro;
 Rybkin,Vladimir V.; Seewald,Patrick; Stein,Frederick; Laino,Teodoro;
 Khaliullin,Rustam Z.; Schuett,Ole; Schiffmann,Florian; Golze,Dorothea;
 Wilhelm,Jan; Chulkov,Sergey; Bani-Hashemian,Mohammad Hossein;
 Weber,Valery; Borstnik,Urban; Taillefumier,Mathieu;
 Jakobovits,Alice Shoshana; Lazzaro,Alfio; Pabst,Hans; Mueller,Tiziano;
 Schade,Robert; Guidon,Manuel; Andermatt,Samuel; Holmberg,Nico;
 Schenter,Gregory K.; Hehn,Anna; Bussy,Augustin; Belleflamme,Fabian;
 Tabacchi,Gloria; Gloess,Andreas; Lass,Michael; Bethune,Iain;
 Mundy,Christopher J.; Plessl,Christian; Watkins,Matt;
 VandeVondele,Joost; Krack,Matthias; Hutter,Juerg. 
 The Journal of Chemical Physics, 152 (19), (2020). 
 CP2K: An electronic structure and molecular dynamics software package -
 Quickstep: Efficient and accurate electronic structure calculations.
 https://doi.org/10.1063/5.0007045

 Goerigk, Lars; Hansen, Andreas; Bauer, Christoph; Ehrlich, Stephan;
 Najibi, Asim; Grimme, Stefan. , 19 (48), (2017). 
 A look at the density functional theory zoo with the advanced GMTKN55 database
 for general main group thermochemistry, kinetics and noncovalent interactions.
 https://doi.org/10.1039/C7CP04913G

 Schuett, Ole; Messmer, Peter; Hutter, Juerg; VandeVondele, Joost. 
 Electronic Structure Calculations on Graphics Processing Units, John
 Wiley & Sons, Ltd, 173-190 (2016). 
 GPU-Accelerated Sparse Matrix-Matrix Multiplication for
 Linear Scaling Density Functional Theory.
 https://doi.org/10.1002/9781118670712.ch8

 Heinecke, A; Henry, G; Hutchinson, M; Pabst, H. 
 Proceedings of Intl. Supercomputing Conference, 981-991 (2016). 
 LIBXSMM: Accelerating Small Matrix Multiplications
 by Runtime Code Generation.
 https://doi.org/10.1109/SC.2016.83

 Borstnik, U; VandeVondele, J; Weber, V; Hutter, J. 
 PARALLEL COMPUTING, 40 (5-6), 47-58 (2014). 
 Sparse matrix multiplication: The distributed block-compressed sparse
 row library.
 https://doi.org/10.1016/j.parco.2014.03.012

 Hutter, J; Iannuzzi, M; Schiffmann, F; VandeVondele, J. 
 WIREs Comput Mol Sci., 4 (1), 15-25 (2014). 
 CP2K: atomistic simulations of condensed matter systems.
 https://doi.org/10.1002/wcms.1159

 Marek, A; Blum, V; Johanni, R; Havu, V; Lang, B; Auckenthaler, T;
 Heinecke, A; Bungartz, H; Lederer, H. 
 Journal of Physics: Condensed Matter, 26 (21), (2014). 
 The ELPA library: scalable parallel eigenvalue solutions for
 electronic structure
 theory and computational science.
 https://doi.org/10.1088/0953-8984/26/21/213201

 Grimme, S; Ehrlich, S; Goerigk, L. 
 JOURNAL OF COMPUTATIONAL CHEMISTRY, 32, 1456 (2011). 
 Effect of the damping function in dispersion corrected density functional theory.
 https://doi.org/10.1002/jcc.21759

 Grimme, S; Antony, J; Ehrlich, S; Krieg, H. 
 JOURNAL OF CHEMICAL PHYSICS, 132 (15), 154104 (2010). 
 A consistent and accurate ab initio parametrization of density
 functional dispersion correction (DFT-D) for the 94 elements H-Pu.
 https://doi.org/10.1063/1.3382344

 VandeVondele, J; Hutter, J. 
 JOURNAL OF CHEMICAL PHYSICS, 127 (11), 114105 (2007). 
 Gaussian basis sets for accurate calculations on molecular systems in
 gas and condensed phases.
 https://doi.org/10.1063/1.2770708

 Krack, M. 
 THEORETICAL CHEMISTRY ACCOUNTS, 114 (1-3), 145-152 (2005). 
 Pseudopotentials for H to Kr optimized for gradient-corrected
 exchange-correlation functionals.
 https://doi.org/10.1007/s00214-005-0655-y

 VandeVondele, J; Krack, M; Mohamed, F; Parrinello, M; Chassaing, T;
 Hutter, J. COMPUTER PHYSICS COMMUNICATIONS, 167 (2), 103-128 (2005). 
 QUICKSTEP: Fast and accurate density functional calculations using a
 mixed Gaussian and plane waves approach.
 https://doi.org/10.1016/j.cpc.2004.12.014

 Frigo, M; Johnson, SG. 
 PROCEEDINGS OF THE IEEE, 93 (2), 216-231 (2005). 
 The design and implementation of FFTW3.
 https://doi.org/10.1109/JPROC.2004.840301

 VandeVondele, J; Hutter, J. 
 JOURNAL OF CHEMICAL PHYSICS, 118 (10), 4365-4369 (2003). 
 An efficient orbital transformation method for electronic structure
 calculations.
 https://doi.org/10.1063/1.1543154

 Hartwigsen, C; Goedecker, S; Hutter, J. 
 PHYSICAL REVIEW B, 58 (7), 3641-3662 (1998). 
 Relativistic separable dual-space Gaussian pseudopotentials from H to Rn.
 https://doi.org/10.1103/PhysRevB.58.3641

 Lippert, G; Hutter, J; Parrinello, M. 
 MOLECULAR PHYSICS, 92 (3), 477-487 (1997). 
 A hybrid Gaussian and plane wave density functional scheme.
 https://doi.org/10.1080/002689797170220

 Perdew, JP; Burke, K; Ernzerhof, M. 
 PHYSICAL REVIEW LETTERS, 77 (18), 3865-3868 (1996). 
 Generalized gradient approximation made simple.
 https://doi.org/10.1103/PhysRevLett.77.3865

 Goedecker, S; Teter, M; Hutter, J. 
 PHYSICAL REVIEW B, 54 (3), 1703-1710 (1996). 
 Separable dual-space Gaussian pseudopotentials.
 https://doi.org/10.1103/PhysRevB.54.1703


 -------------------------------------------------------------------------------
 -                                                                             -
 -                                T I M I N G                                  -
 -                                                                             -
 -------------------------------------------------------------------------------
 SUBROUTINE                       CALLS  ASD         SELF TIME        TOTAL TIME
                                MAXIMUM       AVERAGE  MAXIMUM  AVERAGE  MAXIMUM
 CP2K                                 1  1.0    0.089    0.110  501.595  501.598
 cp_geo_opt                           1  2.0    0.042    0.042  499.888  499.889
 geoopt_bfgs                          1  3.0    0.008    0.010  499.845  499.847
 cp_eval_at                          11  4.0    0.005    0.006  499.712  499.713
 qs_forces                           11  5.0    0.004    0.004  499.705  499.707
 qs_energies                         11  6.0    0.005    0.005  476.936  476.937
 scf_env_do_scf                      11  7.0    0.001    0.002  463.768  463.769
 scf_env_do_scf_inner_loop          221  8.0    0.009    0.025  441.261  441.262
 rebuild_ks_matrix                  232  9.9    0.001    0.001  310.974  310.978
 qs_ks_build_kohn_sham_matrix       232 10.9    0.049    0.052  310.972  310.977
 qs_ks_update_qs_env                232  9.0    0.003    0.003  288.426  288.430
 qs_vxc_create                      232 11.9    0.006    0.007  219.827  220.135
 pw_transfer                       2419 12.7    0.272    0.287  211.789  213.014
 fft_wrap_pw1pw2                   1955 13.6    0.030    0.031  207.692  208.930
 xc_rho_set_and_dset_create         232 13.9    3.365    3.591  142.500  194.269
 fft_wrap_pw1pw2_200                659 14.3   20.332   21.225  187.181  188.980
 qs_rho_update_rho_low              232  9.0    0.002    0.002  178.117  178.120
 calculate_rho_elec                 232 10.0    2.820    2.978  178.115  178.118
 density_rs2pw                      232 11.0    0.027    0.029  163.295  166.209
 fft3d_ps                          1955 15.6  115.354  117.774  148.189  150.290
 xc_functional_eval                 232 14.9    0.004    0.004   81.050  132.783
 pbe_lda_eval                       232 15.9   81.047  132.779   81.047  132.779
 pw_nn_compose_r                   1296 15.7   70.283   73.132   94.095  124.066
 xc_exc_calc                        140 13.0    1.696    1.792  117.665  117.666
 xc_vxc_pw_create                    92 12.6    1.989    2.066  102.156  102.464
 xc_pw_derive                       972 14.8    0.008    0.009   72.015   98.801
 mp_sum_d                          3859 12.9   32.853   76.083   32.853   76.083
 xc_pw_divergence                    92 13.6    0.002    0.002   34.397   61.106
 mp_sendrecv_dm2                   2592 16.7   23.811   53.285   23.811   53.285
 sum_up_and_integrate                92 11.6    1.253    1.302   47.010   47.021
 integrate_v_rspace                  92 12.6    0.005    0.005   45.756   45.781
 potential_pw2rs                     92 13.6    0.080    0.088   42.699   42.723
 rs_pw_transfer                    1642 12.7    0.038    0.041   25.171   28.101
 xc_pw_smooth                       324 14.5    0.004    0.004   22.920   26.276
 pw_gather_p                       1263 15.2   22.617   23.531   22.617   23.531
 qs_ks_update_qs_env_forces          11  6.0    0.000    0.000   22.568   22.568
 init_scf_loop                       11  8.0    0.031    0.032   22.494   22.494
 fft_wrap_pw1pw2_70                 324 14.8    1.580    1.733   17.053   18.870
 yz_to_x                           1263 16.2   11.450   11.668   16.373   18.467
 x_to_yz                            692 17.4   12.354   12.799   16.398   17.409
 pw_scatter_p                       692 16.4   14.577   14.894   14.577   14.894
 grid_collocate_task_list           232 11.0   11.245   14.517   11.245   14.517
 rs_pw_transfer_RS2PW_200           243 13.0    5.466    5.989   10.289   13.421
 pw_poisson_solve                   232 11.9    1.962    1.991   11.679   11.680
 mp_alltoall_z22v                  1955 17.6    8.966   11.592    8.966   11.592
 mp_waitany                       13400 14.7    7.183   10.330    7.183   10.330
 -------------------------------------------------------------------------------

 The number of warnings for this run is : 1
 
 -------------------------------------------------------------------------------
  **** **** ******  **  PROGRAM ENDED AT                 2024-12-05 10:10:46.567
 ***** ** ***  *** **   PROGRAM RAN ON             c6420node123.psmn.ens-lyon.fr
 **    ****   ******    PROGRAM RAN BY                                     mwolf
 ***** **    ** ** **   PROGRAM PROCESS ID                                377000
  **** **  *******  **  PROGRAM STOPPED IN                   /tmp/tmp.tSsTJlidfC
