# Sample of DockOnSurf input file. The file format must be an INI file. 
# Input format on http://forge.cbp.ens-lyon.fr/redmine/projects/dockonsurf/wiki

[Global] # mandatory
project_name = example
run_type = FULL     # mandatory
code = CP2K
batch_q_sys = SGE   # mandatory
pbc_cell = False
subm_script = cp2k.sub
relaunch_err = geo_not_conv
max_jobs = 5r 4q 6rq
special_atoms = False # (Fe1 Fe) (Fe2 Fe) (O1 O)
potcar_dir = False

[Isolated]
isol_inp_file = cp2k.inp    # run_type-dependent
molec_file = acetic.xyz    # run_type-dependent
num_conformers = 100
pre_opt = MMFF

[Screening]
screen_inp_file = screen.inp    # run_type-dependent
surf_file = hematite.xyz  # run_type-dependent
sites = 128 (135 138;141)       # run_type-dependent
surf_ctrs2 = 24 5
molec_ctrs = 178 (185 187)  # run_type-dependent
molec_ctrs2 = 145 45       # run_type-dependent
molec_ctrs3 = 10 5
max_helic_angle = 120
select_magns = moi
confs_per_magn = 3
surf_norm_vect = auto
adsorption_height = 2.5
set_angles = internal
sample_points_per_angle = 4
max_structures = 50
collision_threshold = 0.9
min_coll_height = 1.0
exclude_ads_ctr = True
h_donor = O
h_acceptor = O
use_molec_file = False

[Refinement]
refine_inp_file = refine.inp    # run_type-dependent
energy_cutoff = 1.0
