   12
 
 C     3.407537     1.527660     9.778117
 C     4.235371     1.442519    11.056595
 C     1.950097     1.890749    10.043606
 O     4.004926     2.437369     8.832589
 H     3.989633     3.329277     9.225051
 H     3.447607     0.557042     9.259532
 H     3.820951     0.693823    11.747284
 H     5.273185     1.168340    10.827122
 H     4.241764     2.412609    11.578728
 H     1.392243     1.951871     9.100139
 H     1.466523     1.142019    10.687788
 H     1.879472     2.865704    10.552209
