# Sample of DockOnSurf input file. The file format must be an INI file. 
# Input format on http://forge.cbp.ens-lyon.fr/redmine/projects/dockonsurf/wiki

[Global]
project_name = screening_isopropanol 
run_type = screening
code = VASP
batch_q_sys = slurm  
subm_script = VASP.sh
# potcar_dir = /vasp/PSEUDOS_DATABASIS/XXXX/gw/potpaw/pbe/


[Screening]
screen_inp_file = INCAR KPOINTS POTCAR
surf_file = POSCAR
select_magns = energy
confs_per_magn = 1
adsorption_height = 3
set_angles = euler
sample_points_per_angle = 3
surf_norm_vect = z
min_coll_height= 2.5
sites = 62, 59, 54, 45, (59 62), (54, 45), (45, 54, 59)  
molec_ctrs = 3 , 4, (3 4) 
h_donor = O
h_acceptor = O 
max_structures = 200

